<svg width="124" height="80" viewBox="0 0 124 80" fill="none" xmlns="http://www.w3.org/2000/svg">
    <g clip-path="url(#clip0_12_6038)">
      <path d="M70.4518 53.4547C46.6447 55.596 24.2534 55.4552 3.01624 53.4547C2.74717 53.4547 2.48073 53.4015 2.23214 53.298C1.98355 53.1945 1.75767 53.0429 1.56741 52.8517C1.37715 52.6604 1.22622 52.4334 1.12325 52.1836C1.02028 51.9338 0.967285 51.666 0.967285 51.3956V3.99145C0.967285 3.44534 1.18316 2.9216 1.56741 2.53544C1.95166 2.14928 2.47282 1.93234 3.01624 1.93234C25.4523 -0.0305071 48.0157 -0.0305071 70.4518 1.93234C70.7209 1.93234 70.9873 1.9856 71.2359 2.08908C71.4845 2.19256 71.7104 2.34424 71.9006 2.53544C72.0909 2.72665 72.2418 2.95364 72.3448 3.20347C72.4478 3.45329 72.5007 3.72105 72.5007 3.99145V51.3956C72.5007 51.9417 72.2849 52.4655 71.9006 52.8517C71.5164 53.2378 70.9952 53.4547 70.4518 53.4547Z" fill="white"></path>
      <path d="M70.4518 53.4547C46.6447 55.596 24.2534 55.4552 3.01624 53.4547C2.74717 53.4547 2.48073 53.4015 2.23214 53.298C1.98355 53.1945 1.75767 53.0429 1.56741 52.8516C1.37715 52.6604 1.22622 52.4334 1.12325 52.1836C1.02028 51.9338 0.967285 51.666 0.967285 51.3956V3.99145C0.967285 3.44534 1.18316 2.9216 1.56741 2.53544C1.95166 2.14928 2.47282 1.93234 3.01624 1.93234C25.4523 -0.0305071 48.0157 -0.0305071 70.4518 1.93234C70.7209 1.93234 70.9873 1.9856 71.2359 2.08908C71.4845 2.19256 71.7104 2.34424 71.9006 2.53544C72.0909 2.72665 72.2418 2.95364 72.3448 3.20347C72.4478 3.45329 72.5007 3.72105 72.5007 3.99145V51.3956C72.5007 51.9417 72.2849 52.4655 71.9006 52.8516C71.5164 53.2378 70.9952 53.4547 70.4518 53.4547V53.4547Z" stroke="#7A8EA0" stroke-width="0.941176" stroke-miterlimit="10" stroke-dasharray="1.88 1.88"></path>
      <path d="M67.0595 6.59031C47.0075 4.78077 26.8344 4.78077 6.7824 6.59031C6.40629 6.59031 6.04558 6.74046 5.77962 7.00774C5.51367 7.27501 5.36426 7.63751 5.36426 8.01549V48.0167C5.36426 48.3947 5.51367 48.7572 5.77962 49.0245C6.04558 49.2918 6.40629 49.4419 6.7824 49.4419C26.8447 51.1019 47.0089 51.1019 67.0712 49.4419C67.4473 49.4419 67.808 49.2918 68.0739 49.0245C68.3399 48.7572 68.4893 48.3947 68.4893 48.0167V8.01549C68.4893 7.82734 68.4522 7.64105 68.3802 7.46737C68.3083 7.29369 68.2027 7.13606 68.0698 7.00356C67.9369 6.87107 67.7792 6.76634 67.6058 6.69541C67.4324 6.62448 67.2467 6.58876 67.0595 6.59031Z" fill="#EBEFF3"></path>
      <path d="M66.3682 22.3049C84.9623 25.567 103.23 30.4865 120.956 37.0052C121.699 37.2793 122.313 37.8229 122.677 38.529C123.041 39.2351 123.129 40.0525 122.923 40.8205L113.859 74.8182" fill="white"></path>
      <path d="M66.3682 22.3049C84.9623 25.567 103.23 30.4865 120.956 37.0052C121.699 37.2793 122.313 37.8229 122.677 38.529C123.041 39.2351 123.129 40.0525 122.923 40.8205L113.859 74.8182" stroke="#7A8EA0" stroke-width="0.941176" stroke-miterlimit="10" stroke-linecap="round"></path>
      <path d="M109.728 77.03C91.374 73.5823 73.3138 68.7091 55.7098 62.4542C54.956 62.188 54.3299 61.6458 53.9565 60.9359C53.5832 60.2259 53.4901 59.4006 53.6959 58.6247L62.1394 26.9539" fill="white"></path>
      <path d="M109.728 77.03C91.374 73.5823 73.3138 68.7091 55.7098 62.4542C54.956 62.188 54.3299 61.6458 53.9565 60.9359C53.5832 60.2259 53.4901 59.4006 53.6959 58.6247L62.1394 26.9539" stroke="#767477" stroke-width="0.941176" stroke-miterlimit="10" stroke-linecap="round"></path>
      <path d="M79.9347 47.4746C79.4214 49.3754 79.5681 51.3953 80.3506 53.2011L75.3812 55.6453C74.2783 53.2121 73.8777 50.5165 74.2251 47.8657C74.5726 45.2148 75.6541 42.7154 77.3464 40.6522C79.0387 38.5891 81.2737 37.0452 83.7967 36.1966C86.3197 35.348 89.0292 35.2287 91.6163 35.8525L90.1841 41.2245C88.0034 40.7372 85.7197 41.1154 83.8099 42.28C81.9 43.4447 80.5116 45.3057 79.9347 47.4746Z" fill="#85BEFF"></path>
      <path d="M100.322 57.3452C99.3041 58.9425 97.981 60.3207 96.4292 61.4L93.392 56.8028C94.6954 55.8554 95.7111 54.5625 96.3257 53.0686C96.9404 51.5748 97.1299 49.9386 96.873 48.3428C96.6162 46.7469 95.9231 45.2543 94.8711 44.0313C93.8191 42.8083 92.4496 41.9032 90.9155 41.417L92.3477 36.0474C93.5949 36.4209 94.7863 36.9619 95.8896 37.6557C96.1232 37.813 96.3685 37.9773 96.6091 38.1511C98.231 39.3423 99.588 40.8601 100.594 42.6077C101.599 44.3553 102.231 46.2943 102.45 48.3011C102.478 48.5969 102.504 48.8834 102.511 49.1745C102.63 52.0574 101.87 54.9082 100.333 57.3452H100.322Z" fill="#1479EB"></path>
      <path d="M93.6956 62.9236C93.2251 63.1198 92.7447 63.2914 92.2565 63.4378L92.0742 63.4824C91.7355 63.5693 91.385 63.6632 91.0322 63.7383C90.7706 63.7923 90.5042 63.8299 90.2472 63.8698L89.7963 63.9262C89.7375 63.9302 89.679 63.9381 89.6211 63.9496C89.5792 63.9449 89.5369 63.9449 89.4949 63.9496C89.2894 63.9731 89.0861 63.9802 88.8828 63.9872C88.8828 63.9872 88.8828 63.9872 88.8641 63.9872C88.844 63.9837 88.8235 63.9837 88.8034 63.9872C88.6001 63.9872 88.3829 63.9872 88.1796 63.999H88.1656C87.932 63.999 87.6983 63.999 87.4647 63.9778C86.9974 63.9496 86.5138 63.891 86.0349 63.8252C85.5559 63.7595 85.1003 63.6421 84.6331 63.5153C84.1658 63.3885 83.6985 63.2406 83.25 63.0715C83.028 62.9729 82.7967 62.8884 82.5888 62.7945C82.3808 62.7006 82.1612 62.5996 81.958 62.4916H81.937C81.7711 62.4165 81.6099 62.3202 81.4557 62.231C81.3015 62.1418 81.0982 62.0338 80.9347 61.9258C80.8062 61.859 80.6842 61.7804 80.5702 61.691C80.517 61.6628 80.4655 61.6314 80.416 61.5971C80.2318 61.4807 80.054 61.3545 79.8833 61.219C79.7385 61.1181 79.5936 61.0007 79.4534 60.8856C79.3237 60.7888 79.1989 60.6853 79.0796 60.5757C78.9324 60.4583 78.7899 60.3268 78.6474 60.193C78.5049 60.0592 78.3203 59.8807 78.1685 59.7234C77.4896 59.0312 76.8858 58.2686 76.3672 57.4483C76.2903 57.3403 76.2193 57.2283 76.1546 57.1126L75.9209 56.7064C75.8555 56.5702 75.7807 56.4434 75.7153 56.3166L80.6824 53.8818C81.2401 54.9184 82.0012 55.8307 82.9195 56.5636C83.8378 57.2964 84.8943 57.8347 86.0254 58.1458C87.1564 58.457 88.3384 58.5346 89.5001 58.3739C90.6618 58.2133 91.7791 57.8177 92.7845 57.2112L95.8077 61.8131C95.1365 62.2431 94.4299 62.6147 93.6956 62.9236Z" fill="#EB8321"></path>
      <path d="M106.253 79.4622C87.7371 75.9806 69.5146 71.0731 51.7471 64.7831C50.9925 64.5179 50.3655 63.9759 49.9916 63.2658C49.6178 62.5557 49.5246 61.7299 49.7309 60.9537L58.7958 26.9561C59.0031 26.1873 59.4893 25.5245 60.1588 25.0982C60.8282 24.6718 61.6322 24.5129 62.4124 24.6528C81.0065 27.9152 99.2747 32.8347 117.001 39.353C117.745 39.6263 118.361 40.1697 118.726 40.8762C119.092 41.5827 119.182 42.4012 118.977 43.1707L109.912 77.166C109.702 77.9414 109.209 78.6087 108.53 79.0343C107.852 79.46 107.039 79.6129 106.253 79.4622Z" fill="white" stroke="#7A8EA0" stroke-width="0.941176" stroke-miterlimit="10" stroke-linecap="round"></path>
      <path d="M74.1198 69.8194L74.4679 68.1759C74.5324 67.9122 74.4899 67.6335 74.3499 67.4013C74.2099 67.169 73.9839 67.0021 73.7215 66.9374C73.459 66.8726 73.1818 66.9152 72.9507 67.0559C72.7195 67.1966 72.5535 67.4238 72.4891 67.6875L72.6596 66.8775C72.6991 66.7218 72.7069 66.5597 72.6826 66.4008C72.6582 66.242 72.6022 66.0898 72.5178 65.9533C72.4334 65.8168 72.3225 65.6988 72.1916 65.6065C72.0608 65.5142 71.9127 65.4493 71.7563 65.4159C71.5999 65.3825 71.4384 65.3812 71.2814 65.4121C71.1245 65.443 70.9754 65.5055 70.8431 65.5957C70.7108 65.6859 70.598 65.8021 70.5115 65.9372C70.425 66.0724 70.3665 66.2237 70.3396 66.3821L70.1901 67.0865C70.2296 66.9307 70.2375 66.7686 70.2131 66.6098C70.1887 66.451 70.1327 66.2988 70.0483 66.1623C69.9639 66.0258 69.853 65.9078 69.7221 65.8155C69.5913 65.7231 69.4432 65.6583 69.2868 65.6249C69.1304 65.5915 68.9689 65.5902 68.8119 65.6211C68.655 65.652 68.5059 65.7144 68.3736 65.8047C68.2413 65.8949 68.1285 66.0111 68.042 66.1462C67.9555 66.2813 67.897 66.4326 67.8701 66.591L67.5828 67.9458L65.2815 69.1878L64.6227 72.3152C64.5239 72.781 64.5174 73.2617 64.6036 73.73C64.6898 74.1982 64.8669 74.6448 65.1249 75.0443C65.3828 75.4437 65.7166 75.7882 66.1071 76.0579C66.4975 76.3277 66.9371 76.5176 67.4005 76.6166L70.9284 77.3703C71.3918 77.4695 71.8702 77.476 72.3361 77.3894C72.8021 77.3028 73.2465 77.1248 73.644 76.8656C74.0414 76.6063 74.3842 76.2709 74.6526 75.8785C74.9211 75.4861 75.11 75.0444 75.2085 74.5786L75.9094 71.2704" fill="white"></path>
      <path d="M74.1198 69.8194L74.4679 68.1759C74.5324 67.9122 74.4899 67.6335 74.3499 67.4013C74.2099 67.169 73.9839 67.0021 73.7215 66.9374C73.459 66.8726 73.1818 66.9152 72.9507 67.0559C72.7195 67.1966 72.5535 67.4238 72.4891 67.6875L72.6596 66.8775C72.6991 66.7218 72.7069 66.5597 72.6826 66.4008C72.6582 66.242 72.6022 66.0898 72.5178 65.9533C72.4334 65.8168 72.3225 65.6988 72.1916 65.6065C72.0608 65.5142 71.9127 65.4493 71.7563 65.4159C71.5999 65.3825 71.4384 65.3812 71.2814 65.4121C71.1245 65.443 70.9754 65.5055 70.8431 65.5957C70.7108 65.6859 70.598 65.8021 70.5115 65.9372C70.425 66.0724 70.3665 66.2237 70.3396 66.3821L70.1901 67.0865C70.2296 66.9307 70.2375 66.7686 70.2131 66.6098C70.1887 66.451 70.1327 66.2988 70.0483 66.1623C69.9639 66.0258 69.853 65.9078 69.7221 65.8155C69.5913 65.7231 69.4432 65.6583 69.2868 65.6249C69.1304 65.5915 68.9689 65.5902 68.8119 65.6211C68.655 65.652 68.5059 65.7144 68.3736 65.8047C68.2413 65.8949 68.1285 66.0111 68.042 66.1462C67.9555 66.2813 67.897 66.4326 67.8701 66.591L67.5828 67.9458L65.2815 69.1878L64.6227 72.3152C64.5239 72.781 64.5174 73.2617 64.6036 73.73C64.6898 74.1982 64.8669 74.6448 65.1249 75.0443C65.3828 75.4437 65.7166 75.7882 66.1071 76.0579C66.4975 76.3277 66.9371 76.5176 67.4005 76.6166L70.9284 77.3703C71.3918 77.4695 71.8702 77.476 72.3361 77.3894C72.8021 77.3028 73.2465 77.1248 73.644 76.8656C74.0414 76.6063 74.3842 76.2709 74.6526 75.8785C74.9211 75.4861 75.11 75.0444 75.2085 74.5786L75.9094 71.2704" stroke="#7A8EA0" stroke-width="0.941176" stroke-miterlimit="10" stroke-linecap="round"></path>
      <path d="M75.9045 71.2586L76.2572 69.5963C76.2919 69.4619 76.2992 69.3218 76.2786 69.1844C76.2579 69.0471 76.2098 68.9154 76.1372 68.7972C76.0645 68.6791 75.9688 68.5769 75.8558 68.497C75.7427 68.4171 75.6148 68.3609 75.4796 68.3321C75.3444 68.3032 75.2048 68.3021 75.0692 68.3289C74.9336 68.3557 74.8048 68.4099 74.6906 68.4881C74.5764 68.5663 74.4791 68.667 74.4047 68.784C74.3303 68.901 74.2802 69.032 74.2575 69.169L74.1196 69.8194" fill="white"></path>
      <path d="M75.9045 71.2586L76.2572 69.5963C76.2919 69.4619 76.2992 69.3218 76.2786 69.1844C76.2579 69.0471 76.2098 68.9154 76.1372 68.7972C76.0645 68.6791 75.9688 68.5769 75.8558 68.497C75.7427 68.4171 75.6148 68.3609 75.4796 68.3321C75.3444 68.3032 75.2048 68.3021 75.0692 68.3289C74.9336 68.3557 74.8048 68.4099 74.6906 68.4881C74.5764 68.5663 74.4791 68.667 74.4047 68.784C74.3303 68.901 74.2802 69.032 74.2575 69.169L74.1196 69.8194" stroke="#7A8EA0" stroke-width="0.941176" stroke-miterlimit="10" stroke-linecap="round"></path>
      <path d="M75.9045 71.2587L75.2036 74.5669C75.1051 75.0327 74.9162 75.4744 74.6478 75.8668C74.3793 76.2592 74.0365 76.5946 73.6391 76.8538C73.2416 77.1131 72.7972 77.2911 72.3313 77.3777C71.8653 77.4643 71.387 77.4578 70.9235 77.3585L67.3957 76.6049C66.463 76.4037 65.6475 75.8394 65.1278 75.0355C64.6081 74.2315 64.4264 73.2534 64.6225 72.3152L65.2813 69.1996L67.5826 67.9575" stroke="#7A8EA0" stroke-width="0.941176" stroke-miterlimit="10" stroke-linecap="round"></path>
      <path d="M67.0151 70.6295L67.8702 66.5911C67.9359 66.2831 68.1201 66.0137 68.3828 65.8417C68.6454 65.6697 68.9651 65.6091 69.272 65.6731V65.6731C69.5785 65.7391 69.8467 65.9243 70.0178 66.1882C70.189 66.4521 70.2492 66.7734 70.1855 67.0818L69.8281 68.7935" stroke="#7A8EA0" stroke-width="0.941176" stroke-miterlimit="10" stroke-linecap="round"></path>
      <path d="M69.8281 68.7934L70.3397 66.3751C70.4054 66.067 70.5896 65.7976 70.8522 65.6256C71.1149 65.4536 71.4345 65.393 71.7414 65.457V65.457C72.0479 65.523 72.316 65.7082 72.4872 65.9721C72.6583 66.2361 72.7186 66.5573 72.6549 66.8658L72.1432 69.2841" stroke="#7A8EA0" stroke-width="0.941176" stroke-miterlimit="10" stroke-linecap="round"></path>
      <path d="M72.1201 69.3921L72.4682 67.7486C72.5248 67.4822 72.6843 67.2493 72.9116 67.1009C73.1389 66.9526 73.4155 66.901 73.6807 66.9573V66.9573C73.8121 66.9852 73.9367 67.0389 74.0474 67.1153C74.1581 67.1917 74.2527 67.2893 74.3259 67.4024C74.399 67.5156 74.4492 67.6422 74.4736 67.7749C74.498 67.9077 74.496 68.0439 74.4679 68.1759L74.1199 69.8194" stroke="#7A8EA0" stroke-width="0.941176" stroke-miterlimit="10" stroke-linecap="round"></path>
      <path d="M74.1196 69.8194L74.2575 69.169C74.3141 68.9026 74.4736 68.6697 74.7009 68.5213C74.9282 68.373 75.2048 68.3214 75.4699 68.3777V68.3777C75.735 68.4347 75.9667 68.5949 76.1143 68.8234C76.2619 69.0518 76.3133 69.3298 76.2572 69.5963L75.9044 71.2586" stroke="#7A8EA0" stroke-width="0.941176" stroke-miterlimit="10" stroke-linecap="round"></path>
      <path d="M42.7663 26.8741H38.7011V22.7887C38.7011 22.5671 38.6135 22.3545 38.4575 22.1977C38.3015 22.0409 38.09 21.9529 37.8694 21.9529C37.6488 21.9529 37.4372 22.0409 37.2813 22.1977C37.1253 22.3545 37.0377 22.5671 37.0377 22.7887V26.8741H32.9748C32.7542 26.8741 32.5427 26.9622 32.3867 27.1189C32.2307 27.2757 32.1431 27.4883 32.1431 27.7099C32.1431 27.9316 32.2307 28.1442 32.3867 28.301C32.5427 28.4577 32.7542 28.5458 32.9748 28.5458H37.04V32.6358C37.04 32.8575 37.1276 33.0701 37.2836 33.2269C37.4396 33.3836 37.6511 33.4717 37.8717 33.4717C38.0923 33.4717 38.3039 33.3836 38.4598 33.2269C38.6158 33.0701 38.7035 32.8575 38.7035 32.6358V28.5505H42.7687C42.9891 28.5499 43.2002 28.4616 43.3561 28.305C43.5119 28.1484 43.5998 27.9361 43.6004 27.7146C43.601 27.6043 43.5799 27.4949 43.5382 27.3928C43.4965 27.2907 43.4352 27.1979 43.3576 27.1197C43.2801 27.0416 43.1879 26.9796 43.0864 26.9375C42.9849 26.8953 42.8761 26.8738 42.7663 26.8741Z" fill="#91A2B2"></path>
      <path d="M20.6416 36.519C20.6416 36.519 15.9689 63.1889 47.5934 63.7383" stroke="#7A8EA0" stroke-width="0.941176" stroke-miterlimit="10" stroke-dasharray="1.88 1.88"></path>
      <path d="M15.6675 39.8719L20.8845 36.127L26.1108 41.0129" stroke="#7A8EA0" stroke-width="0.941176" stroke-miterlimit="10" stroke-dasharray="1.41 1.41"></path>
    </g>
    <defs>
      <clipPath id="clip0_12_6038">
        <rect width="123" height="80" fill="white" transform="translate(0.5)"></rect>
      </clipPath>
    </defs>
  </svg>